{
  "Deltas" : [
    {
      "Device_ID" : 1,
      "Action_ID" : 1,
      "Sensor_Prop_ID" : 1,
      "Delta" : 5
    },
    {
      "Device_ID" : 1,
      "Action_ID" : 2,
      "Sensor_Prop_ID" : 1,
      "Delta" : 0
    },
    {
      "Device_ID" : 2,
      "Action_ID" : 1,
      "Sensor_Prop_ID" : 1,
      "Delta" : 5
    },
    {
      "Device_ID" : 2,
      "Action_ID" : 2,
      "Sensor_Prop_ID" : 1,
      "Delta" : 0
    },
    {
      "Device_ID" : 3,
      "Action_ID" : 1,
      "Sensor_Prop_ID" : 1,
      "Delta" : 5
    },
    {
      "Device_ID" : 3,
      "Action_ID" : 2,
      "Sensor_Prop_ID" : 1,
      "Delta" : 0
    }
  ]
}